<?xml version="1.0" encoding="UTF-8" standalone="no"?>
<!-- Created with Inkscape (http://www.inkscape.org/) -->

<svg
   xmlns:dc="http://purl.org/dc/elements/1.1/"
   xmlns:cc="http://creativecommons.org/ns#"
   xmlns:rdf="http://www.w3.org/1999/02/22-rdf-syntax-ns#"
   xmlns:svg="http://www.w3.org/2000/svg"
   xmlns="http://www.w3.org/2000/svg"
   xmlns:sodipodi="http://sodipodi.sourceforge.net/DTD/sodipodi-0.dtd"
   xmlns:inkscape="http://www.inkscape.org/namespaces/inkscape"
   width="48"
   height="48"
   viewBox="0 0 12.7 12.7"
   version="1.1"
   id="svg8"
   inkscape:version="0.92.3 (2405546, 2018-03-11)"
   sodipodi:docname="compass.svg">
  <defs
     id="defs2" />
  <sodipodi:namedview
     id="base"
     pagecolor="#ffffff"
     bordercolor="#666666"
     borderopacity="1.0"
     inkscape:pageopacity="0.0"
     inkscape:pageshadow="2"
     inkscape:zoom="31.678384"
     inkscape:cx="32.654367"
     inkscape:cy="22.066794"
     inkscape:document-units="px"
     inkscape:current-layer="layer1"
     showgrid="false"
     showguides="true"
     inkscape:guide-bbox="true"
     units="px"
     inkscape:window-width="3840"
     inkscape:window-height="2031"
     inkscape:window-x="0"
     inkscape:window-y="55"
     inkscape:window-maximized="1">
    <sodipodi:guide
       position="101.69605,162.2326"
       orientation="0,1"
       id="guide815"
       inkscape:locked="false" />
    <sodipodi:guide
       position="101.69605,162.2326"
       orientation="1,0"
       id="guide817"
       inkscape:locked="false" />
    <sodipodi:guide
       position="8.510864,6.3476513"
       orientation="0,1"
       id="guide4560"
       inkscape:locked="false" />
    <sodipodi:guide
       position="6.3560035,8.4774554"
       orientation="1,0"
       id="guide4562"
       inkscape:locked="false" />
  </sodipodi:namedview>
  <metadata
     id="metadata5">
    <rdf:RDF>
      <cc:Work
         rdf:about="">
        <dc:format>image/svg+xml</dc:format>
        <dc:type
           rdf:resource="http://purl.org/dc/dcmitype/StillImage" />
        <dc:title />
      </cc:Work>
    </rdf:RDF>
  </metadata>
  <g
     inkscape:label="Ebene 1"
     inkscape:groupmode="layer"
     id="layer1"
     transform="translate(0,-284.3)">
    <circle
       style="opacity:1;fill:none;fill-opacity:1;fill-rule:nonzero;stroke:#000000;stroke-width:0.06614667;stroke-miterlimit:4;stroke-dasharray:none;stroke-dashoffset:0;stroke-opacity:1"
       id="path819"
       cx="6.3365593"
       cy="290.64059"
       r="4.6929684" />
    <rect
       style="opacity:1;fill:#cccccc;fill-opacity:1;fill-rule:nonzero;stroke:#cccccc;stroke-width:0.06614667;stroke-miterlimit:4;stroke-dasharray:none;stroke-dashoffset:0;stroke-opacity:1"
       id="rect821"
       width="1.438427"
       height="1.438427"
       x="5.6367898"
       y="289.93314" />
    <path
       style="opacity:1;vector-effect:none;fill:#cccccc;fill-opacity:1;stroke:#cccccc;stroke-width:0.01591028px;stroke-linecap:butt;stroke-linejoin:miter;stroke-miterlimit:4;stroke-dasharray:none;stroke-dashoffset:0;stroke-opacity:1"
       d="m 5.6367896,289.93313 0.7158409,-3.95334 0.7225857,3.95334 z"
       id="path823"
       inkscape:connector-curvature="0"
       sodipodi:nodetypes="cccc" />
    <path
       style="opacity:1;vector-effect:none;fill:#cccccc;fill-opacity:1;stroke:#cccccc;stroke-width:0.01591028px;stroke-linecap:butt;stroke-linejoin:miter;stroke-miterlimit:4;stroke-dasharray:none;stroke-dashoffset:0;stroke-opacity:1"
       d="m 7.0752162,289.93313 3.9221688,0.71551 -3.9221688,0.7229 v -1.43841 0"
       id="path825"
       inkscape:connector-curvature="0" />
    <path
       style="opacity:1;vector-effect:none;fill:#cccccc;fill-opacity:1;stroke:#cccccc;stroke-width:0.01591028px;stroke-linecap:butt;stroke-linejoin:miter;stroke-miterlimit:4;stroke-dasharray:none;stroke-dashoffset:0;stroke-opacity:1"
       d="m 7.0752162,291.37154 -0.7225857,3.91381 -0.7158409,-3.91381 z"
       id="path827"
       inkscape:connector-curvature="0" />
    <path
       style="opacity:1;vector-effect:none;fill:#cccccc;fill-opacity:1;stroke:#cccccc;stroke-width:0.01591028px;stroke-linecap:butt;stroke-linejoin:miter;stroke-miterlimit:4;stroke-dasharray:none;stroke-dashoffset:0;stroke-opacity:1"
       d="m 5.6367896,291.37154 -4.0092704,-0.7229 4.0092704,-0.71551 z"
       id="path829"
       inkscape:connector-curvature="0" />
    <path
       style="opacity:1;fill:#ffffff;fill-opacity:1;fill-rule:nonzero;stroke:#ffffff;stroke-width:0.06614667;stroke-miterlimit:4;stroke-dasharray:none;stroke-dashoffset:0;stroke-opacity:1"
       id="path833"
       sodipodi:type="arc"
       sodipodi:cx="6.3560033"
       sodipodi:cy="290.65234"
       sodipodi:rx="0.71921349"
       sodipodi:ry="0.71921349"
       sodipodi:start="0"
       sodipodi:end="6.275087"
       d="m 7.0752168,290.65234 a 0.71921349,0.71921349 0 0 1 -0.7177574,0.71922 0.71921349,0.71921349 0 0 1 -0.7206637,-0.7163 0.71921349,0.71921349 0 0 1 0.7148393,-0.72212 0.71921349,0.71921349 0 0 1 0.7235582,0.71338 l -0.7191899,0.006 z" />
    <path
       style="opacity:1;fill:#ff0000;fill-opacity:1;fill-rule:nonzero;stroke:#ff0000;stroke-width:0.06614667;stroke-miterlimit:4;stroke-dasharray:none;stroke-dashoffset:0;stroke-opacity:1"
       id="path835"
       sodipodi:type="arc"
       sodipodi:cx="6.3526306"
       sodipodi:cy="290.64865"
       sodipodi:rx="0.25714895"
       sodipodi:ry="0.25714895"
       sodipodi:start="0"
       sodipodi:end="6.275087"
       d="m 6.6097796,290.64865 a 0.25714895,0.25714895 0 0 1 -0.2566284,0.25715 0.25714895,0.25714895 0 0 1 -0.2576674,-0.25611 0.25714895,0.25714895 0 0 1 0.255585,-0.25818 0.25714895,0.25714895 0 0 1 0.2587023,0.25506 l -0.2571405,0.002 z" />
    <text
       xml:space="preserve"
       style="font-style:normal;font-weight:normal;font-size:0.68083715px;line-height:1.25;font-family:sans-serif;letter-spacing:0px;word-spacing:0px;fill:#000000;fill-opacity:1;stroke:none;stroke-width:0.01702093"
       x="5.7935991"
       y="285.49026"
       id="text843"><tspan
         sodipodi:role="line"
         id="tspan841"
         x="5.7935991"
         y="285.49026"
         style="font-style:normal;font-variant:normal;font-weight:normal;font-stretch:normal;font-size:1.45245266px;font-family:sans-serif;-inkscape-font-specification:'sans-serif, Normal';font-variant-ligatures:normal;font-variant-caps:normal;font-variant-numeric:normal;font-feature-settings:normal;text-align:start;writing-mode:lr-tb;text-anchor:start;stroke-width:0.01702093">N</tspan></text>
    <text
       xml:space="preserve"
       style="font-style:normal;font-weight:normal;font-size:0.68083715px;line-height:1.25;font-family:sans-serif;letter-spacing:0px;word-spacing:0px;fill:#000000;fill-opacity:1;stroke:none;stroke-width:0.01702093"
       x="11.501921"
       y="291.25015"
       id="text847"><tspan
         sodipodi:role="line"
         id="tspan845"
         x="11.501921"
         y="291.25015"
         style="font-style:normal;font-variant:normal;font-weight:normal;font-stretch:normal;font-size:1.45245266px;font-family:sans-serif;-inkscape-font-specification:'sans-serif, Normal';font-variant-ligatures:normal;font-variant-caps:normal;font-variant-numeric:normal;font-feature-settings:normal;text-align:start;writing-mode:lr-tb;text-anchor:start;stroke-width:0.01702093">E</tspan></text>
    <text
       xml:space="preserve"
       style="font-style:normal;font-weight:normal;font-size:0.68083715px;line-height:1.25;font-family:sans-serif;letter-spacing:0px;word-spacing:0px;fill:#000000;fill-opacity:1;stroke:none;stroke-width:0.01702093"
       x="5.8967619"
       y="296.84674"
       id="text851"><tspan
         sodipodi:role="line"
         id="tspan849"
         x="5.8967619"
         y="296.84674"
         style="font-style:normal;font-variant:normal;font-weight:normal;font-stretch:normal;font-size:1.45245266px;font-family:sans-serif;-inkscape-font-specification:'sans-serif, Normal';font-variant-ligatures:normal;font-variant-caps:normal;font-variant-numeric:normal;font-feature-settings:normal;text-align:start;writing-mode:lr-tb;text-anchor:start;stroke-width:0.01702093">S</tspan></text>
    <text
       xml:space="preserve"
       style="font-style:normal;font-weight:normal;font-size:0.68083715px;line-height:1.25;font-family:sans-serif;letter-spacing:0px;word-spacing:0px;fill:#000000;fill-opacity:1;stroke:none;stroke-width:0.01702093"
       x="0.093175195"
       y="291.13101"
       id="text855"><tspan
         sodipodi:role="line"
         id="tspan853"
         x="0.093175195"
         y="291.13101"
         style="font-style:normal;font-variant:normal;font-weight:normal;font-stretch:normal;font-size:1.45245266px;font-family:sans-serif;-inkscape-font-specification:'sans-serif, Normal';font-variant-ligatures:normal;font-variant-caps:normal;font-variant-numeric:normal;font-feature-settings:normal;text-align:start;writing-mode:lr-tb;text-anchor:start;stroke-width:0.01702093">W</tspan></text>
  </g>
</svg>
